Condition	StageB_Female_vs_StageD_Female	StageB_Female_vs_StageG_Female	StageD_Female_vs_StageG_Female	StageB_Male_vs_StageD_Male	StageB_Male_vs_StageG_Male	StageD_Male_vs_StageG_Male	StageB_Hermaphrodite_vs_StageD_Hermaphrodite	StageB_Hermaphrodite_vs_StageG_Hermaphrodite	StageD_Hermaphrodite_vs_StageG_Hermaphrodite	Female_vs_Male	Female_vs_Hermaphrodite	Male_vs_Hermaphrodite	StageB_vs_StageD	StageB_vs_StageG	StadeD_vs_StageG
StageB_Female	+	+	0	0	0	0	0	0	0	+	+	0	+	+	0
StageD_Female	-	0	+	0	0	0	0	0	0	+	+	0	-	0	+
StageG_Female	0	-	-	0	0	0	0	0	0	+	+	0	0	-	-
StageB_Male	0	0	0	+	+	0	0	0	0	-	0	+	+	+	0
StageD_Male	0	0	0	-	0	+	0	0	0	-	0	+	-	0	+
StageG_Male	0	0	0	0	-	-	0	0	0	-	0	+	0	-	-
StageB_Hermaphrodite	0	0	0	0	0	0	+	+	0	0	-	-	+	+	0
StageD_Hermaphrodite	0	0	0	0	0	0	-	0	+	0	-	-	-	0	+
StageG_Hermaphrodite	0	0	0	0	0	0	0	-	-	0	-	-	0	-	-